{
    "color": {
        "blue": "#008f95",
        "grey": "#5a6268",
        "lightgrey": "#d8d8d8",
        "red": "#e24e42",
        "yellow": "#e9b000",
        "pink": "#eb6e80",
        "white": "#f5f5f5",
        "purple": "#997792",
        "error": "#EC5F59",
        "success": "#67AC5B",
        "warning": "#F6C244",
        "info": "#4895EC"
    },
    "font": {
        "main": "Josefin Sans"
    },
    "screen": {
        "phone": "@media only screen and (max-width: 576px)",
        "rest": "@media only screen and (min-width: 576px)"
    }
}